C:\Users\siamm\Documents\NetBeansProjects\ReportProject\src\main\java\com\mycompany\reportproject\DatabaseHelper.java
C:\Users\siamm\Documents\NetBeansProjects\ReportProject\src\main\java\com\mycompany\reportproject\Report1.java
C:\Users\siamm\Documents\NetBeansProjects\ReportProject\src\main\java\com\mycompany\reportproject\ReportProject.java
C:\Users\siamm\Documents\NetBeansProjects\ReportProject\src\main\java\com\mycompany\reportproject\DateLabelFormatter.java
C:\Users\siamm\Documents\NetBeansProjects\ReportProject\src\main\java\com\mycompany\reportproject\ArtistService.java
C:\Users\siamm\Documents\NetBeansProjects\ReportProject\src\main\java\com\mycompany\reportproject\ArtistDao.java
C:\Users\siamm\Documents\NetBeansProjects\ReportProject\src\main\java\com\mycompany\reportproject\Artist.java
C:\Users\siamm\Documents\NetBeansProjects\ReportProject\src\main\java\com\mycompany\reportproject\ArtistReport.java
C:\Users\siamm\Documents\NetBeansProjects\ReportProject\src\main\java\com\mycompany\reportproject\Dao.java
